{
  "$schema": "https://docs.renovatebot.com/renovate-schema.json",
  "extends": [
    "github>atlassian-labs/server-platform-renovate-config:frontend"
  ],
  "baseBranches": [
    "release/6.0.x",
    "release/6.1.x",
    "release/7.0.x",
    "master"
  ],
  "packageRules": [
    {
      "baseBranchList": [
        "release/6.0.x",
        "release/6.1.x",
        "release/7.0.x"
      ],
      "updateTypes": [
        "major",
        "minor"
      ],
      "enabled": false
    }, {
      "matchPackageNames": ["com.atlassian.diagnostics:noisy-neighbour-plugin"],
      "allowedVersions": "1.1.21"
    }, {
      "matchPackageNames": [
        "com.atlassian.profiling:atlassian-profiling",
        "com.atlassian.profiling:atlassian-profiling-micrometer"],
      "allowedVersions": "3.7.0"
    }
  ]
}
